Reproducible Analyses
…
DHF endorsement and norms scores (centered) across countries

country_endors

## # A tibble: 63 × 19
##    country_res_full   D_self_end_mean_country D_other_end_mean_country
##    <fct>                                <dbl>                    <dbl>
##  1 Argentina                             5.22                     5.51
##  2 Armenia                               4.98                     4.96
##  3 Australia                             5.01                     5.18
##  4 Austria                               4.97                     5.31
##  5 Bangladesh                            5.18                     5.27
##  6 Bosnia-Herzegovina                    5.18                     5.17
##  7 Brazil                                5.04                     5.53
##  8 Bulgaria                              5.11                     5.06
##  9 Cameroon                              5.12                     5.28
## 10 Canada                                5.01                     5.13
## # ℹ 53 more rows
## # ℹ 16 more variables: H_self_end_mean_country <dbl>,
## #   H_other_end_mean_country <dbl>, F_self_end_mean_country <dbl>,
## #   F_other_end_mean_country <dbl>, D_end_mean_country <dbl>,
## #   H_end_mean_country <dbl>, F_end_mean_country <dbl>,
## #   D_self_endc_mean_country <dbl>, D_other_endc_mean_country <dbl>,
## #   H_self_endc_mean_country <dbl>, H_other_endc_mean_country <dbl>, …

country_norm

## # A tibble: 63 × 19
##    country_res_full   D_self_norm_mean_country D_other_norm_mean_country
##    <fct>                                 <dbl>                     <dbl>
##  1 Argentina                              4.64                      4.34
##  2 Armenia                                3.54                      3.35
##  3 Australia                              4.55                      4.42
##  4 Austria                                4.41                      4.30
##  5 Bangladesh                             4.93                      4.95
##  6 Bosnia-Herzegovina                     3.75                      3.50
##  7 Brazil                                 4.34                      4.22
##  8 Bulgaria                               4.18                      3.52
##  9 Cameroon                               4.84                      4.89
## 10 Canada                                 4.53                      4.38
## # ℹ 53 more rows
## # ℹ 16 more variables: H_self_norm_mean_country <dbl>,
## #   H_other_norm_mean_country <dbl>, F_self_norm_mean_country <dbl>,
## #   F_other_norm_mean_country <dbl>, D_norm_mean_country <dbl>,
## #   H_norm_mean_country <dbl>, F_norm_mean_country <dbl>,
## #   D_self_normc_mean_country <dbl>, D_other_normc_mean_country <dbl>,
## #   H_self_normc_mean_country <dbl>, H_other_normc_mean_country <dbl>, …
…
tidy(fitmeasures(provocation.fit.6f))

## Warning in tidy.numeric(fitmeasures(provocation.fit.6f)): 'tidy.numeric' is deprecated.
## See help("Deprecated")

## # A tibble: 33 × 2
##    names           x           
##    <chr>           <lvn.vctr>  
##  1 npar            4.200000e+01
##  2 fmin            3.480688e+00
##  3 chisq           1.102048e-03
##  4 df              0.000000e+00
##  5 pvalue                    NA
##  6 baseline.chisq  2.872479e+03
##  7 baseline.df     3.300000e+01
##  8 baseline.pvalue 0.000000e+00
##  9 cfi             9.999996e-01
## 10 tli             1.000000e+00
## # ℹ 23 more rows

tidy(provocation.fit.6f)

## # A tibble: 81 × 11
##    term   op    block level estimate std.error statistic p.value  std.lv std.all
##    <chr>  <chr> <int> <int>    <dbl>     <dbl>     <dbl>   <dbl>   <dbl>   <dbl>
##  1 Retal… ~         1     1   0.175     0.0186      9.39 0        0.175   0.0697
##  2 Retal… ~         1     1  -0.0908    0.0169     -5.37 7.85e-8 -0.0908 -0.0398
##  3 Retal… ~         1     1   0.218     0.0167     13.1  0        0.218   0.104 
##  4 Retal… ~         1     1   0.242     0.0179     13.5  0        0.242   0.122 
##  5 Retal… ~         1     1   0.0615    0.0190      3.24 1.21e-3  0.0615  0.0287
##  6 Retal… ~         1     1  -0.327     0.0173    -19.0  0       -0.327  -0.164 
##  7 Withd… ~         1     1  -0.164     0.0160    -10.3  0       -0.164  -0.0767
##  8 Withd… ~         1     1  -0.0400    0.0145     -2.76 5.73e-3 -0.0400 -0.0206
##  9 Withd… ~         1     1  -0.0655    0.0143     -4.58 4.67e-6 -0.0655 -0.0368
## 10 Withd… ~         1     1  -0.134     0.0154     -8.74 0       -0.134  -0.0792
## # ℹ 71 more rows
## # ℹ 1 more variable: std.nox <dbl>
…
tidy(fitmeasures(provocation.fit.3f))

## Warning in tidy.numeric(fitmeasures(provocation.fit.3f)): 'tidy.numeric' is deprecated.
## See help("Deprecated")

## # A tibble: 33 × 2
##    names           x           
##    <chr>           <lvn.vctr>  
##  1 npar            3.300000e+01
##  2 fmin            2.868675e+00
##  3 chisq           1.303088e-03
##  4 df              0.000000e+00
##  5 pvalue                    NA
##  6 baseline.chisq  2.488752e+03
##  7 baseline.df     2.400000e+01
##  8 baseline.pvalue 0.000000e+00
##  9 cfi             9.999995e-01
## 10 tli             1.000000e+00
## # ℹ 23 more rows

tidy(provocation.fit.3f)

## # A tibble: 54 × 11
##    term  op    block level estimate std.error statistic p.value  std.lv  std.all
##    <chr> <chr> <int> <int>    <dbl>     <dbl>     <dbl>   <dbl>   <dbl>    <dbl>
##  1 Reta… ~         1     1   0.0739    0.0190     3.88  1.04e-4  0.0739  0.0262 
##  2 Reta… ~         1     1   0.503     0.0210    24.0   0        0.503   0.213  
##  3 Reta… ~         1     1  -0.310     0.0206   -15.1   0       -0.310  -0.134  
##  4 With… ~         1     1  -0.204     0.0163   -12.6   0       -0.204  -0.0851 
##  5 With… ~         1     1  -0.218     0.0179   -12.2   0       -0.218  -0.109  
##  6 With… ~         1     1   0.294     0.0176    16.8   0        0.294   0.149  
##  7 Humo… ~         1     1   0.0148    0.0221     0.670 5.03e-1  0.0148  0.00458
##  8 Humo… ~         1     1  -0.119     0.0244    -4.88  1.07e-6 -0.119  -0.0439 
##  9 Humo… ~         1     1   0.0275    0.0239     1.15  2.50e-1  0.0275  0.0103 
## 10 Reta… ~~        1     1   2.65      0.0250   106.    0        2.65    0.973  
## # ℹ 44 more rows
## # ℹ 1 more variable: std.nox <dbl>
…
tidy(fitmeasures(provocation.fit.6f))

## Warning in tidy.numeric(fitmeasures(provocation.fit.6f)): 'tidy.numeric' is deprecated.
## See help("Deprecated")

## # A tibble: 33 × 2
##    names           x           
##    <chr>           <lvn.vctr>  
##  1 npar            4.200000e+01
##  2 fmin            3.480878e+00
##  3 chisq           1.847135e-03
##  4 df              0.000000e+00
##  5 pvalue                    NA
##  6 baseline.chisq  2.865095e+03
##  7 baseline.df     3.300000e+01
##  8 baseline.pvalue 0.000000e+00
##  9 cfi             9.999993e-01
## 10 tli             1.000000e+00
## # ℹ 23 more rows

tidy(provocation.fit.6f)

## # A tibble: 81 × 11
##    term   op    block level estimate std.error statistic p.value  std.lv std.all
##    <chr>  <chr> <int> <int>    <dbl>     <dbl>     <dbl>   <dbl>   <dbl>   <dbl>
##  1 Retal… ~         1     1   0.175     0.0186      9.39 0        0.175   0.0697
##  2 Retal… ~         1     1  -0.0908    0.0169     -5.37 7.88e-8 -0.0908 -0.0398
##  3 Retal… ~         1     1   0.218     0.0167     13.1  0        0.218   0.104 
##  4 Retal… ~         1     1   0.242     0.0179     13.5  0        0.242   0.122 
##  5 Retal… ~         1     1   0.0615    0.0190      3.24 1.21e-3  0.0615  0.0287
##  6 Retal… ~         1     1  -0.327     0.0173    -19.0  0       -0.327  -0.164 
##  7 Withd… ~         1     1  -0.164     0.0160    -10.3  0       -0.164  -0.0767
##  8 Withd… ~         1     1  -0.0400    0.0145     -2.76 5.72e-3 -0.0400 -0.0206
##  9 Withd… ~         1     1  -0.0655    0.0143     -4.58 4.66e-6 -0.0655 -0.0368
## 10 Withd… ~         1     1  -0.134     0.0154     -8.74 0       -0.134  -0.0792
## # ℹ 71 more rows
## # ℹ 1 more variable: std.nox <dbl>
…
tidy(fitmeasures(provocation.fit.3f))

## Warning in tidy.numeric(fitmeasures(provocation.fit.3f)): 'tidy.numeric' is deprecated.
## See help("Deprecated")

## # A tibble: 33 × 2
##    names           x           
##    <chr>           <lvn.vctr>  
##  1 npar            3.300000e+01
##  2 fmin            2.868866e+00
##  3 chisq           1.947923e-03
##  4 df              0.000000e+00
##  5 pvalue                    NA
##  6 baseline.chisq  2.481376e+03
##  7 baseline.df     2.400000e+01
##  8 baseline.pvalue 0.000000e+00
##  9 cfi             9.999992e-01
## 10 tli             1.000000e+00
## # ℹ 23 more rows

tidy(provocation.fit.3f)

## # A tibble: 54 × 11
##    term  op    block level estimate std.error statistic p.value  std.lv  std.all
##    <chr> <chr> <int> <int>    <dbl>     <dbl>     <dbl>   <dbl>   <dbl>    <dbl>
##  1 Reta… ~         1     1   0.0739    0.0190     3.88  1.04e-4  0.0739  0.0262 
##  2 Reta… ~         1     1   0.503     0.0210    24.0   0        0.503   0.213  
##  3 Reta… ~         1     1  -0.310     0.0206   -15.1   0       -0.310  -0.134  
##  4 With… ~         1     1  -0.204     0.0163   -12.6   0       -0.204  -0.0851 
##  5 With… ~         1     1  -0.218     0.0179   -12.2   0       -0.218  -0.109  
##  6 With… ~         1     1   0.294     0.0176    16.8   0        0.294   0.149  
##  7 Humo… ~         1     1   0.0148    0.0221     0.670 5.03e-1  0.0148  0.00457
##  8 Humo… ~         1     1  -0.119     0.0244    -4.88  1.07e-6 -0.119  -0.0439 
##  9 Humo… ~         1     1   0.0275    0.0239     1.15  2.50e-1  0.0275  0.0103 
## 10 Reta… ~~        1     1   2.65      0.0250   106.    0        2.65    0.973  
## # ℹ 44 more rows
## # ℹ 1 more variable: std.nox <dbl>
